{
	"cmake" : 
	{
		"generator" : 
		{
			"name" : "Unix Makefiles"
		},
		"paths" : 
		{
			"cmake" : "/usr/bin/cmake",
			"cpack" : "/usr/bin/cpack",
			"ctest" : "/usr/bin/ctest",
			"root" : "/usr/share/cmake-3.16"
		},
		"version" : 
		{
			"isDirty" : false,
			"major" : 3,
			"minor" : 16,
			"patch" : 2,
			"string" : "3.16.2",
			"suffix" : ""
		}
	},
	"objects" : 
	[
		{
			"jsonFile" : "codemodel-v2-1ad7fef48fe1906bc4b5.json",
			"kind" : "codemodel",
			"version" : 
			{
				"major" : 2,
				"minor" : 0
			}
		},
		{
			"jsonFile" : "cache-v2-7e65104878fb564357b1.json",
			"kind" : "cache",
			"version" : 
			{
				"major" : 2,
				"minor" : 0
			}
		},
		{
			"jsonFile" : "cmakeFiles-v1-404bddaf99f912fc7626.json",
			"kind" : "cmakeFiles",
			"version" : 
			{
				"major" : 1,
				"minor" : 0
			}
		}
	],
	"reply" : 
	{
		"cache-v2" : 
		{
			"jsonFile" : "cache-v2-7e65104878fb564357b1.json",
			"kind" : "cache",
			"version" : 
			{
				"major" : 2,
				"minor" : 0
			}
		},
		"cmakeFiles-v1" : 
		{
			"jsonFile" : "cmakeFiles-v1-404bddaf99f912fc7626.json",
			"kind" : "cmakeFiles",
			"version" : 
			{
				"major" : 1,
				"minor" : 0
			}
		},
		"codemodel-v2" : 
		{
			"jsonFile" : "codemodel-v2-1ad7fef48fe1906bc4b5.json",
			"kind" : "codemodel",
			"version" : 
			{
				"major" : 2,
				"minor" : 0
			}
		}
	}
}
